stm32f3xx_hal_spi.c:2246:26:SPI_WaitFlagStateUntilTimeout	32	static
stm32f3xx_hal_spi.c:2296:26:SPI_WaitFifoStateUntilTimeout	40	static
stm32f3xx_hal_spi.c:2375:26:SPI_EndRxTxTransaction	16	static
stm32f3xx_hal_spi.c:2349:26:SPI_EndRxTransaction	16	static
stm32f3xx_hal_spi.c:346:14:HAL_SPI_MspInit	0	static
stm32f3xx_hal_spi.c:217:19:HAL_SPI_Init	8	static
stm32f3xx_hal_spi.c:358:14:HAL_SPI_MspDeInit	0	static
stm32f3xx_hal_spi.c:314:19:HAL_SPI_DeInit	8	static
stm32f3xx_hal_spi.c:428:19:HAL_SPI_Transmit	24	static
stm32f3xx_hal_spi.c:750:19:HAL_SPI_TransmitReceive	40	static
stm32f3xx_hal_spi.c:559:19:HAL_SPI_Receive	40	static
stm32f3xx_hal_spi.c:976:19:HAL_SPI_Transmit_IT	16	static
stm32f3xx_hal_spi.c:1160:19:HAL_SPI_TransmitReceive_IT	24	static
stm32f3xx_hal_spi.c:1055:19:HAL_SPI_Receive_IT	8	static
stm32f3xx_hal_spi.c:1256:19:HAL_SPI_Transmit_DMA	16	static
stm32f3xx_hal_spi.c:1442:19:HAL_SPI_TransmitReceive_DMA	24	static
stm32f3xx_hal_spi.c:1343:19:HAL_SPI_Receive_DMA	8	static
stm32f3xx_hal_spi.c:1842:13:HAL_SPI_TxCpltCallback	0	static
stm32f3xx_hal_spi.c:1854:13:HAL_SPI_RxCpltCallback	0	static
stm32f3xx_hal_spi.c:1866:13:HAL_SPI_TxRxCpltCallback	0	static
stm32f3xx_hal_spi.c:1878:14:HAL_SPI_ErrorCallback	0	static
stm32f3xx_hal_spi.c:2477:13:SPI_CloseTx_ISR	8	static
stm32f3xx_hal_spi.c:2200:13:SPI_TxISR_8BIT	8	static
stm32f3xx_hal_spi.c:2220:13:SPI_TxISR_16BIT	8	static
stm32f3xx_hal_spi.c:2443:13:SPI_CloseRx_ISR	8	static
stm32f3xx_hal_spi.c:2130:13:SPI_RxISR_8BIT	8	static
stm32f3xx_hal_spi.c:2112:13:SPI_RxISR_8BITCRC	16	static
stm32f3xx_hal_spi.c:2173:13:SPI_RxISR_16BIT	8	static
stm32f3xx_hal_spi.c:2156:13:SPI_RxISR_16BITCRC	16	static
stm32f3xx_hal_spi.c:2400:13:SPI_CloseRxTx_ISR	8	static
stm32f3xx_hal_spi.c:2001:13:SPI_2linesTxISR_8BIT	8	static
stm32f3xx_hal_spi.c:1931:13:SPI_2linesRxISR_8BIT	8	static
stm32f3xx_hal_spi.c:1975:13:SPI_2linesRxISR_8BITCRC	16	static
stm32f3xx_hal_spi.c:2084:13:SPI_2linesTxISR_16BIT	8	static
stm32f3xx_hal_spi.c:2038:13:SPI_2linesRxISR_16BIT	8	static
stm32f3xx_hal_spi.c:2067:13:SPI_2linesRxISR_16BITCRC	16	static
stm32f3xx_hal_spi.c:1827:13:SPI_DMAError	8	static
stm32f3xx_hal_spi.c:1641:13:SPI_DMATransmitCplt	8	static
stm32f3xx_hal_spi.c:1685:13:SPI_DMAReceiveCplt	16	static
stm32f3xx_hal_spi.c:1759:13:SPI_DMATransmitReceiveCplt	16	static
stm32f3xx_hal_spi.c:1580:6:HAL_SPI_IRQHandler	8	static
stm32f3xx_hal_spi.c:1910:22:HAL_SPI_GetState	0	static
