stm32f3xx_hal_dma.c:171:19:HAL_DMA_Init	8	static
stm32f3xx_hal_dma.c:226:19:HAL_DMA_DeInit	8	static
stm32f3xx_hal_dma.c:307:19:HAL_DMA_Start	24	static
stm32f3xx_hal_dma.c:339:19:HAL_DMA_Start_IT	24	static
stm32f3xx_hal_dma.c:383:19:HAL_DMA_Abort	16	static
stm32f3xx_hal_dma.c:428:19:HAL_DMA_PollForTransfer	48	static
stm32f3xx_hal_dma.c:512:6:HAL_DMA_IRQHandler	8	static
stm32f3xx_hal_dma.c:624:22:HAL_DMA_GetState	0	static
stm32f3xx_hal_dma.c:635:10:HAL_DMA_GetError	0	static
