stm32f3xx_hal_flash_ex.c:437:13:FLASH_MassErase	0	static
stm32f3xx_hal_flash_ex.c:145:19:HAL_FLASHEx_Erase	32	static
stm32f3xx_hal_flash_ex.c:233:19:HAL_FLASHEx_Erase_IT	8	static
stm32f3xx_hal_flash_ex.c:355:19:HAL_FLASHEx_OBProgram	24	static
stm32f3xx_hal_flash_ex.c:406:6:HAL_FLASHEx_OBGetConfig	0	static
stm32f3xx_hal_flash_ex.c:299:19:HAL_FLASHEx_OBErase	40	static
