stm32f3xx_hal_uart.c:506:14:HAL_UART_MspInit	0	static
stm32f3xx_hal_uart.c:518:14:HAL_UART_MspDeInit	0	static
stm32f3xx_hal_uart.c:469:19:HAL_UART_DeInit	16	static
stm32f3xx_hal_uart.c:749:19:HAL_UART_Transmit_IT	4	static
stm32f3xx_hal_uart.c:800:19:HAL_UART_Receive_IT	4	static
stm32f3xx_hal_uart.c:857:19:HAL_UART_Transmit_DMA	8	static
stm32f3xx_hal_uart.c:923:19:HAL_UART_Receive_DMA	8	static
stm32f3xx_hal_uart.c:984:19:HAL_UART_DMAPause	0	static
stm32f3xx_hal_uart.c:1057:19:HAL_UART_DMAStop	8	static
stm32f3xx_hal_uart.c:1182:19:UART_WaitOnFlagUntilTimeout	24	static
stm32f3xx_hal_uart.c:591:19:HAL_UART_Transmit	24	static
stm32f3xx_hal_uart.c:669:19:HAL_UART_Receive	32	static
stm32f3xx_hal_uart.c:1245:14:HAL_UART_TxCpltCallback	0	static
stm32f3xx_hal_uart.c:1257:14:HAL_UART_TxHalfCpltCallback	0	static
stm32f3xx_hal_uart.c:1810:13:UART_DMATxHalfCplt	8	static
stm32f3xx_hal_uart.c:1269:13:HAL_UART_RxCpltCallback	0	static
stm32f3xx_hal_uart.c:1822:13:UART_DMAReceiveCplt	8	static
stm32f3xx_hal_uart.c:1281:13:HAL_UART_RxHalfCpltCallback	0	static
stm32f3xx_hal_uart.c:1848:13:UART_DMARxHalfCplt	8	static
stm32f3xx_hal_uart.c:1293:14:HAL_UART_ErrorCallback	0	static
stm32f3xx_hal_uart.c:1860:13:UART_DMAError	8	static
stm32f3xx_hal_uart.c:1773:13:UART_DMATransmitCplt	8	static
stm32f3xx_hal_uart.c:1305:14:HAL_UART_WakeupCallback	0	static
stm32f3xx_hal_uart.c:1093:6:HAL_UART_IRQHandler	8	static
stm32f3xx_hal_uart.c:1388:6:HAL_MultiProcessor_EnterMuteMode	0	static
stm32f3xx_hal_uart.c:1398:19:UART_SetConfig	8	static
stm32f3xx_hal_uart.c:1510:6:UART_AdvFeatureConfig	8	static
stm32f3xx_hal_uart.c:1586:19:UART_CheckIdleState	8	static
stm32f3xx_hal_uart.c:206:19:HAL_UART_Init	8	static
stm32f3xx_hal_uart.c:266:19:HAL_HalfDuplex_Init	8	static
stm32f3xx_hal_uart.c:326:19:HAL_LIN_Init	16	static
stm32f3xx_hal_uart.c:406:19:HAL_MultiProcessor_Init	16	static
stm32f3xx_hal_uart.c:1018:19:HAL_UART_DMAResume	8	static
stm32f3xx_hal_uart.c:1346:19:HAL_MultiProcessor_EnableMuteMode	8	static
stm32f3xx_hal_uart.c:1367:19:HAL_MultiProcessor_DisableMuteMode	8	static
stm32f3xx_hal_uart.c:1630:6:UART_Wakeup_AddressConfig	24	static
stm32f3xx_hal_uart.c:1647:19:HAL_HalfDuplex_EnableTransmitter	0	static
stm32f3xx_hal_uart.c:1670:19:HAL_HalfDuplex_EnableReceiver	0	static
stm32f3xx_hal_uart.c:1694:19:HAL_LIN_SendBreak	8	static
stm32f3xx_hal_uart.c:1741:23:HAL_UART_GetState	0	static
stm32f3xx_hal_uart.c:1752:10:HAL_UART_GetError	0	static
