stm32f3xx_hal_adc_ex.c:5999:26:ADC_Disable	16	static
stm32f3xx_hal_adc_ex.c:6060:26:ADC_ConversionStop	16	static
stm32f3xx_hal_adc_ex.c:5945:26:ADC_Enable	16	static
stm32f3xx_hal_adc_ex.c:5919:13:ADC_DMAError	8	static
stm32f3xx_hal_adc_ex.c:5905:13:ADC_DMAHalfConvCplt	8	static
stm32f3xx_hal_adc_ex.c:5871:13:ADC_DMAConvCplt	8	static
stm32f3xx_hal_adc_ex.c:373:19:HAL_ADC_Init	16	static
stm32f3xx_hal_adc_ex.c:789:19:HAL_ADC_DeInit	16	static
stm32f3xx_hal_adc_ex.c:1239:19:HAL_ADC_Start	8	static
stm32f3xx_hal_adc_ex.c:1373:19:HAL_ADC_Stop	8	static
stm32f3xx_hal_adc_ex.c:1460:19:HAL_ADC_PollForConversion	24	static
stm32f3xx_hal_adc_ex.c:1670:19:HAL_ADC_PollForEvent	24	static
stm32f3xx_hal_adc_ex.c:1843:19:HAL_ADC_Start_IT	8	static
stm32f3xx_hal_adc_ex.c:1995:19:HAL_ADC_Stop_IT	8	static
stm32f3xx_hal_adc_ex.c:2095:19:HAL_ADC_Start_DMA	24	static
stm32f3xx_hal_adc_ex.c:2291:19:HAL_ADC_Stop_DMA	16	static
stm32f3xx_hal_adc_ex.c:2423:10:HAL_ADC_GetValue	8	static
stm32f3xx_hal_adc_ex.c:2822:19:HAL_ADCEx_Calibration_Start	16	static
stm32f3xx_hal_adc_ex.c:2997:10:HAL_ADCEx_Calibration_GetValue	16	static
stm32f3xx_hal_adc_ex.c:3032:19:HAL_ADCEx_Calibration_SetValue	16	static
stm32f3xx_hal_adc_ex.c:3095:19:HAL_ADCEx_InjectedStart	8	static
stm32f3xx_hal_adc_ex.c:3239:19:HAL_ADCEx_InjectedStop	8	static
stm32f3xx_hal_adc_ex.c:3357:19:HAL_ADCEx_InjectedPollForConversion	24	static
stm32f3xx_hal_adc_ex.c:3557:19:HAL_ADCEx_InjectedStart_IT	8	static
stm32f3xx_hal_adc_ex.c:3727:19:HAL_ADCEx_InjectedStop_IT	8	static
stm32f3xx_hal_adc_ex.c:4127:10:HAL_ADCEx_InjectedGetValue	16	static
stm32f3xx_hal_adc_ex.c:4218:13:HAL_ADCEx_InjectedConvCpltCallback	0	static
stm32f3xx_hal_adc_ex.c:4238:13:HAL_ADCEx_InjectedQueueOverflowCallback	0	static
stm32f3xx_hal_adc_ex.c:2470:6:HAL_ADC_IRQHandler	8	static
stm32f3xx_hal_adc_ex.c:4299:19:HAL_ADC_ConfigChannel	16	static
stm32f3xx_hal_adc_ex.c:4776:19:HAL_ADCEx_InjectedConfigChannel	16	static
stm32f3xx_hal_adc_ex.c:5517:19:HAL_ADC_AnalogWDGConfig	24	static
