stm32f3xx_hal_rcc_ex.c:124:19:HAL_RCCEx_PeriphCLKConfig	24	static,ignoring_inline_asm
stm32f3xx_hal_rcc_ex.c:568:6:HAL_RCCEx_GetPeriphCLKConfig	0	static
stm32f3xx_hal_rcc_ex.c:775:19:HAL_RCC_OscConfig	24	static,ignoring_inline_asm
stm32f3xx_hal_rcc_ex.c:1130:6:HAL_RCC_GetOscConfig	8	static,ignoring_inline_asm
stm32f3xx_hal_rcc_ex.c:1243:10:HAL_RCC_GetSysClockFreq	4	static,ignoring_inline_asm
