xnucleoihm02a1_interface.c:106:6:SystemClock_Config	136	static
xnucleoihm02a1_interface.c:139:6:MX_GPIO_Init	8	static
xnucleoihm02a1_interface.c:165:6:MX_SPI2_Init	8	static
xnucleoihm02a1_interface.c:261:6:MX_USART2_Init	8	static
xnucleoihm02a1_interface.c:281:6:MX_ADC1_Init	40	static
xnucleoihm02a1_interface.c:327:6:NUCLEO_Board_Init	8	static
xnucleoihm02a1_interface.c:359:6:User_LED_Blinking	24	static
