stm32f3xx_it.c:61:6:SysTick_Handler	8	static
stm32f3xx_it.c:77:6:EXTI1_IRQHandler	8	static
stm32f3xx_it.c:85:6:EXTI0_IRQHandler	8	static
stm32f3xx_it.c:93:6:USART2_IRQHandler	8	static
stm32f3xx_it.c:102:6:EXTI15_10_IRQHandler	8	static
