stm32f3xx_hal.c:200:13:HAL_MspInit	0	static
stm32f3xx_hal.c:211:13:HAL_MspDeInit	0	static
stm32f3xx_hal.c:177:19:HAL_DeInit	8	static
stm32f3xx_hal.c:234:26:HAL_InitTick	8	static
stm32f3xx_hal.c:151:19:HAL_Init	8	static
stm32f3xx_hal.c:284:13:HAL_IncTick	0	static
stm32f3xx_hal.c:295:17:HAL_GetTick	0	static
stm32f3xx_hal.c:311:13:HAL_Delay	16	static
stm32f3xx_hal.c:329:13:HAL_SuspendTick	0	static
stm32f3xx_hal.c:347:13:HAL_ResumeTick	0	static
stm32f3xx_hal.c:358:10:HAL_GetHalVersion	0	static
stm32f3xx_hal.c:367:10:HAL_GetREVID	0	static
stm32f3xx_hal.c:376:10:HAL_GetDEVID	0	static
stm32f3xx_hal.c:385:6:HAL_EnableDBGSleepMode	0	static
stm32f3xx_hal.c:394:6:HAL_DisableDBGSleepMode	0	static
stm32f3xx_hal.c:403:6:HAL_EnableDBGStopMode	0	static
stm32f3xx_hal.c:412:6:HAL_DisableDBGStopMode	0	static
stm32f3xx_hal.c:421:6:HAL_EnableDBGStandbyMode	0	static
stm32f3xx_hal.c:430:6:HAL_DisableDBGStandbyMode	0	static
