stm32f3xx_hal_adc.c:258:26:HAL_ADC_Init	0	static
stm32f3xx_hal_adc.c:286:26:HAL_ADC_DeInit	0	static
stm32f3xx_hal_adc.c:300:13:HAL_ADC_MspInit	0	static
stm32f3xx_hal_adc.c:312:13:HAL_ADC_MspDeInit	0	static
stm32f3xx_hal_adc.c:355:26:HAL_ADC_Start	0	static
stm32f3xx_hal_adc.c:375:26:HAL_ADC_Stop	0	static
stm32f3xx_hal_adc.c:390:26:HAL_ADC_PollForConversion	0	static
stm32f3xx_hal_adc.c:412:26:HAL_ADC_PollForEvent	0	static
stm32f3xx_hal_adc.c:433:26:HAL_ADC_Start_IT	0	static
stm32f3xx_hal_adc.c:457:26:HAL_ADC_Stop_IT	0	static
stm32f3xx_hal_adc.c:480:26:HAL_ADC_Start_DMA	0	static
stm32f3xx_hal_adc.c:502:26:HAL_ADC_Stop_DMA	0	static
stm32f3xx_hal_adc.c:516:17:HAL_ADC_GetValue	0	static
stm32f3xx_hal_adc.c:530:13:HAL_ADC_IRQHandler	0	static
stm32f3xx_hal_adc.c:541:13:HAL_ADC_ConvCpltCallback	0	static
stm32f3xx_hal_adc.c:553:13:HAL_ADC_ConvHalfCpltCallback	0	static
stm32f3xx_hal_adc.c:569:13:HAL_ADC_LevelOutOfWindowCallback	0	static
stm32f3xx_hal_adc.c:582:13:HAL_ADC_ErrorCallback	0	static
stm32f3xx_hal_adc.c:631:26:HAL_ADC_ConfigChannel	0	static
stm32f3xx_hal_adc.c:654:26:HAL_ADC_AnalogWDGConfig	0	static
stm32f3xx_hal_adc.c:689:22:HAL_ADC_GetState	8	static
stm32f3xx_hal_adc.c:703:10:HAL_ADC_GetError	0	static
